{
    "env": {
        "name": "prod"
    },
    "api": {
        "url_base": "https://learningml.org",
        "path": "/projects/"
    },
    "web": {
        "url_base": "https://web.learningml.org"
    },
    "scratch": {
        "url": "http://localhost:3000/scratch",
        "domain": "http://localhost:3000"
    },
    "easyml": {
        "url": "http://localhost:3000/editor",
        "domain": "http://localhost:3000"
    }
}
